Categories:Multimedia
License:Apache-2.0
Web Site:
Source Code:https://github.com/SimpleMobileTools/Simple-Gallery
Issue Tracker:https://github.com/SimpleMobileTools/Simple-Gallery/issues
Changelog:https://github.com/SimpleMobileTools/Simple-Gallery/blob/HEAD/CHANGELOG.md

Auto Name:Gallery
Summary:A gallery for viewing photos and videos
Description:
A simple tool usable for viewing photos and videos. Items can be sorted by date,
size, name both ascending or descending, photos can be zoomed in. Media files
are shown in multiple columns, depending on the size of the display. They can be
renamed, shared or deleted.

The Gallery is also offered for third party usage for previewing images /
videos, adding attachments at email clients etc. It's perfect for everyday
usage.

Contains no ads or unnecessary permissions. It is fully opensource, provides a
Dark theme too.
.

Repo Type:git
Repo:https://github.com/SimpleMobileTools/Simple-Gallery

Build:1.9,10
    commit=33909cbba4ca354351713077d72b42ae611209af
    subdir=app
    gradle=yes

Build:1.11,11
    commit=1.11
    subdir=app
    gradle=yes

Build:1.12,12
    commit=1.12
    subdir=app
    gradle=yes

Build:1.13,13
    commit=1.13
    subdir=app
    gradle=yes

Build:1.14,14
    commit=1.14
    subdir=app
    gradle=yes

Build:1.15,15
    commit=1.15
    subdir=app
    gradle=yes

Build:1.16,16
    commit=1.16
    subdir=app
    gradle=yes

Build:1.17,17
    commit=1.17
    subdir=app
    gradle=yes

Build:1.18,18
    commit=1.18
    subdir=app
    gradle=yes

Build:1.19,19
    commit=1.19
    subdir=app
    gradle=yes

Build:1.20,20
    commit=1.20
    subdir=app
    gradle=yes

Build:1.22,22
    commit=1.22
    subdir=app
    gradle=yes

Build:1.23,23
    commit=1.23
    subdir=app
    gradle=yes

Build:1.24,24
    commit=1.24
    subdir=app
    gradle=yes

Build:1.25,25
    commit=1.25
    subdir=app
    gradle=yes

Build:1.26,26
    commit=1.26
    subdir=app
    gradle=yes

Build:1.27,27
    commit=1.27
    subdir=app
    gradle=yes

Build:1.28,28
    commit=1.28
    subdir=app
    gradle=yes

Build:1.29,29
    commit=1.29
    subdir=app
    gradle=yes

Build:1.30,30
    commit=1.30
    subdir=app
    gradle=yes

Build:1.31,31
    commit=1.31
    subdir=app
    gradle=yes

Build:1.33,33
    commit=1.33
    subdir=app
    gradle=yes

Build:1.34,34
    commit=1.34
    subdir=app
    gradle=yes

Build:1.35,35
    commit=1.35
    subdir=app
    gradle=yes

Build:1.37,37
    commit=1.37
    subdir=app
    gradle=yes

Build:1.40,40
    commit=1.40
    subdir=app
    gradle=yes

Build:1.41,41
    commit=1.41
    subdir=app
    gradle=yes

Build:1.42,42
    commit=1.42
    subdir=app
    gradle=yes

Build:1.43,43
    commit=1.43
    subdir=app
    gradle=yes

Build:1.44,44
    commit=1.44
    subdir=app
    gradle=yes

Build:1.45,45
    commit=1.45
    subdir=app
    gradle=yes

Build:1.46,46
    commit=1.46
    subdir=app
    gradle=yes

Build:1.47,47
    commit=1.47
    subdir=app
    gradle=yes

Build:1.48,48
    commit=1.48
    subdir=app
    gradle=yes

Build:1.49,49
    commit=1.49
    subdir=app
    gradle=yes

Build:1.51,51
    commit=1.51
    subdir=app
    gradle=yes

Build:2.1,53
    commit=2.1
    subdir=app
    gradle=yes

Build:2.1.1,54
    commit=2.1.1
    subdir=app
    gradle=yes

Build:2.1.2,55
    commit=2.1.2
    subdir=app
    gradle=yes

Build:2.1.3,56
    commit=2.1.3
    subdir=app
    gradle=yes

Build:2.2.1,58
    commit=2.2.1
    subdir=app
    gradle=yes

Build:2.2.2,59
    commit=2.2.2
    subdir=app
    gradle=yes

Build:2.2.3,60
    commit=2.2.3
    subdir=app
    gradle=yes

Build:2.3.0,61
    commit=2.3.0
    subdir=app
    gradle=yes

Build:2.3.1,62
    commit=2.3.1
    subdir=app
    gradle=yes

Build:2.3.2,63
    commit=2.3.2
    subdir=app
    gradle=yes

Build:2.3.3,64
    commit=2.3.3
    subdir=app
    gradle=yes

Auto Update Mode:Version %v
Update Check Mode:Tags
Current Version:2.3.3
Current Version Code:64
